%YAML 1.1
%TAG !u! tag:unity3d.com,2011:
--- !u!1 &101112
GameObject:
  m_ObjectHideFlags: 0
  m_PrefabParentObject: {fileID: 0}
  m_PrefabInternal: {fileID: 100100000}
  serializedVersion: 5
  m_Component:
  - component: {fileID: 403292}
  - component: {fileID: 11464396}
  m_Layer: 0
  m_Name: RightHand
  m_TagString: Untagged
  m_Icon: {fileID: 0}
  m_NavMeshLayer: 0
  m_StaticEditorFlags: 0
  m_IsActive: 1
--- !u!1 &104806
GameObject:
  m_ObjectHideFlags: 0
  m_PrefabParentObject: {fileID: 0}
  m_PrefabInternal: {fileID: 100100000}
  serializedVersion: 5
  m_Component:
  - component: {fileID: 449252}
  - component: {fileID: 11419036}
  m_Layer: 0
  m_Name: LeftHand
  m_TagString: Untagged
  m_Icon: {fileID: 0}
  m_NavMeshLayer: 0
  m_StaticEditorFlags: 0
  m_IsActive: 1
--- !u!1 &140386
GameObject:
  m_ObjectHideFlags: 0
  m_PrefabParentObject: {fileID: 0}
  m_PrefabInternal: {fileID: 100100000}
  serializedVersion: 5
  m_Component:
  - component: {fileID: 478642}
  - component: {fileID: 11457864}
  - component: {fileID: 11439526}
  - component: {fileID: 11424654}
  m_Layer: 0
  m_Name: NVRPlayer
  m_TagString: Untagged
  m_Icon: {fileID: 0}
  m_NavMeshLayer: 0
  m_StaticEditorFlags: 0
  m_IsActive: 1
--- !u!4 &403292
Transform:
  m_ObjectHideFlags: 1
  m_PrefabParentObject: {fileID: 0}
  m_PrefabInternal: {fileID: 100100000}
  m_GameObject: {fileID: 101112}
  m_LocalRotation: {x: 0, y: 0, z: 0, w: 1}
  m_LocalPosition: {x: 0, y: 0, z: 0}
  m_LocalScale: {x: 1, y: 1, z: 1}
  m_Children: []
  m_Father: {fileID: 478642}
  m_RootOrder: 2
  m_LocalEulerAnglesHint: {x: 0, y: 0, z: 0}
--- !u!4 &449252
Transform:
  m_ObjectHideFlags: 1
  m_PrefabParentObject: {fileID: 0}
  m_PrefabInternal: {fileID: 100100000}
  m_GameObject: {fileID: 104806}
  m_LocalRotation: {x: 0, y: 0, z: 0, w: 1}
  m_LocalPosition: {x: 0, y: 0, z: 0}
  m_LocalScale: {x: 1, y: 1, z: 1}
  m_Children: []
  m_Father: {fileID: 478642}
  m_RootOrder: 1
  m_LocalEulerAnglesHint: {x: 0, y: 0, z: 0}
--- !u!4 &478642
Transform:
  m_ObjectHideFlags: 1
  m_PrefabParentObject: {fileID: 0}
  m_PrefabInternal: {fileID: 100100000}
  m_GameObject: {fileID: 140386}
  m_LocalRotation: {x: 0, y: 1, z: 0, w: 0}
  m_LocalPosition: {x: 0, y: 0, z: -2}
  m_LocalScale: {x: 1, y: 1, z: 1}
  m_Children:
  - {fileID: 4000011751482340}
  - {fileID: 449252}
  - {fileID: 403292}
  m_Father: {fileID: 0}
  m_RootOrder: 0
  m_LocalEulerAnglesHint: {x: 0, y: 180, z: 0}
--- !u!114 &11419036
MonoBehaviour:
  m_ObjectHideFlags: 1
  m_PrefabParentObject: {fileID: 0}
  m_PrefabInternal: {fileID: 100100000}
  m_GameObject: {fileID: 104806}
  m_Enabled: 1
  m_EditorHideFlags: 0
  m_Script: {fileID: 11500000, guid: 1487c36fb75d2924e8bff712895f43c3, type: 3}
  m_Name: 
  m_EditorClassIdentifier: 
  HoldButton: 2
  UseButton: 17
  IsRight: 0
  IsLeft: 0
  Player: {fileID: 0}
  CurrentInteractionStyle: 0
  Rigidbody: {fileID: 0}
  CustomModel: {fileID: 0}
  CustomPhysicalColliders: {fileID: 0}
  CurrentHandState: 0
  CurrentlyInteracting: {fileID: 0}
  OnBeginInteraction:
    m_PersistentCalls:
      m_Calls: []
    m_TypeName: NewtonVR.NVRHand+NVRInteractableEvent, Assembly-CSharp, Version=0.0.0.0,
      Culture=neutral, PublicKeyToken=null
  OnEndInteraction:
    m_PersistentCalls:
      m_Calls: []
    m_TypeName: NewtonVR.NVRHand+NVRInteractableEvent, Assembly-CSharp, Version=0.0.0.0,
      Culture=neutral, PublicKeyToken=null
  PhysicalController: {fileID: 0}
--- !u!114 &11424654
MonoBehaviour:
  m_ObjectHideFlags: 1
  m_PrefabParentObject: {fileID: 0}
  m_PrefabInternal: {fileID: 100100000}
  m_GameObject: {fileID: 140386}
  m_Enabled: 1
  m_EditorHideFlags: 0
  m_Script: {fileID: -619905303, guid: f5f67c52d1564df4a8936ccd202a3bd8, type: 3}
  m_Name: 
  m_EditorClassIdentifier: 
  m_FirstSelected: {fileID: 0}
  m_sendNavigationEvents: 1
  m_DragThreshold: 5
--- !u!114 &11439526
MonoBehaviour:
  m_ObjectHideFlags: 1
  m_PrefabParentObject: {fileID: 0}
  m_PrefabInternal: {fileID: 100100000}
  m_GameObject: {fileID: 140386}
  m_Enabled: 1
  m_EditorHideFlags: 0
  m_Script: {fileID: 11500000, guid: 34741d591a424bf4caa9f51a133edc53, type: 3}
  m_Name: 
  m_EditorClassIdentifier: 
  GeometryBlocksLaser: 1
  LayersThatBlockLaser:
    serializedVersion: 2
    m_Bits: 4294967295
  CursorSprite: {fileID: 10913, guid: 0000000000000000f000000000000000, type: 0}
  CursorMaterial: {fileID: 0}
  NormalCursorScale: 0.05
  LaserEnabled: 1
  LaserColor: {r: 0, g: 0, b: 1, a: 1}
  LaserStartWidth: 0.02
  LaserEndWidth: 0.001
  OnCanvas: 0
  CanvasUsed: 0
--- !u!114 &11457864
MonoBehaviour:
  m_ObjectHideFlags: 1
  m_PrefabParentObject: {fileID: 0}
  m_PrefabInternal: {fileID: 100100000}
  m_GameObject: {fileID: 140386}
  m_Enabled: 1
  m_EditorHideFlags: 0
  m_Script: {fileID: 11500000, guid: 692596da9ff9cdd4aa3dd605c1e0df5e, type: 3}
  m_Name: 
  m_EditorClassIdentifier: 
  SteamVREnabled: 1
  OculusSDKEnabled: 0
  InteractionStyle: 0
  PhysicalHands: 0
  MakeControllerInvisibleOnInteraction: 1
  AutomaticallySetControllerTransparency: 1
  VibrateOnHover: 1
  VelocityHistorySteps: 3
  OnInitialized:
    m_PersistentCalls:
      m_Calls: []
    m_TypeName: UnityEngine.Events.UnityEvent, UnityEngine.CoreModule, Version=0.0.0.0,
      Culture=neutral, PublicKeyToken=null
  EnableEditorPlayerPreview: 0
  EditorPlayerPreview: {fileID: 4300000, guid: 4c5ee852bb16638409bc37f8004f52a2, type: 3}
  EditorPlayspacePreview: {fileID: 4300000, guid: 53999722e4cf33d40b85a5c7a0c317fd,
    type: 2}
  EditorPlayspaceOverride: 0
  EditorPlayspaceDefault: {x: 2, y: 1.5}
  OverrideAll: 0
  OverrideAllLeftHand: {fileID: 56742944, guid: 55e83fd42960be248a3e117078f3da8b,
    type: 2}
  OverrideAllLeftHandPhysicalColliders: {fileID: 54487328, guid: 7c3b57f429838f14a8a2c2c179e9e9e9,
    type: 2}
  OverrideAllRightHand: {fileID: 56745632, guid: 55e83fd42960be248a3e117078f3da8b,
    type: 2}
  OverrideAllRightHandPhysicalColliders: {fileID: 56746656, guid: 7c3b57f429838f14a8a2c2c179e9e9e9,
    type: 2}
  OverrideSteamVR: 0
  OverrideSteamVRLeftHand: {fileID: 0}
  OverrideSteamVRLeftHandPhysicalColliders: {fileID: 0}
  OverrideSteamVRRightHand: {fileID: 0}
  OverrideSteamVRRightHandPhysicalColliders: {fileID: 0}
  OverrideOculus: 0
  OverrideOculusLeftHand: {fileID: 56752288, guid: 55e83fd42960be248a3e117078f3da8b,
    type: 2}
  OverrideOculusLeftHandPhysicalColliders: {fileID: 56753312, guid: 7c3b57f429838f14a8a2c2c179e9e9e9,
    type: 2}
  OverrideOculusRightHand: {fileID: 54486560, guid: 55e83fd42960be248a3e117078f3da8b,
    type: 2}
  OverrideOculusRightHandPhysicalColliders: {fileID: 56641824, guid: 7c3b57f429838f14a8a2c2c179e9e9e9,
    type: 2}
  Head: {fileID: 114000011294332214}
  LeftHand: {fileID: 11419036}
  RightHand: {fileID: 11464396}
  Hands: []
  CurrentIntegrationType: 0
  DEBUGEnableFallback2D: 0
  DEBUGDropFrames: 0
  DEBUGSleepPerFrame: 13
  AutoSetFixedDeltaTime: 1
  NotifyOnVersionUpdate: 1
--- !u!114 &11464396
MonoBehaviour:
  m_ObjectHideFlags: 1
  m_PrefabParentObject: {fileID: 0}
  m_PrefabInternal: {fileID: 100100000}
  m_GameObject: {fileID: 101112}
  m_Enabled: 1
  m_EditorHideFlags: 0
  m_Script: {fileID: 11500000, guid: 1487c36fb75d2924e8bff712895f43c3, type: 3}
  m_Name: 
  m_EditorClassIdentifier: 
  HoldButton: 2
  UseButton: 17
  IsRight: 0
  IsLeft: 0
  Player: {fileID: 0}
  CurrentInteractionStyle: 0
  Rigidbody: {fileID: 0}
  CustomModel: {fileID: 0}
  CustomPhysicalColliders: {fileID: 0}
  CurrentHandState: 0
  CurrentlyInteracting: {fileID: 0}
  OnBeginInteraction:
    m_PersistentCalls:
      m_Calls: []
    m_TypeName: NewtonVR.NVRHand+NVRInteractableEvent, Assembly-CSharp, Version=0.0.0.0,
      Culture=neutral, PublicKeyToken=null
  OnEndInteraction:
    m_PersistentCalls:
      m_Calls: []
    m_TypeName: NewtonVR.NVRHand+NVRInteractableEvent, Assembly-CSharp, Version=0.0.0.0,
      Culture=neutral, PublicKeyToken=null
  PhysicalController: {fileID: 0}
--- !u!1001 &100100000
Prefab:
  m_ObjectHideFlags: 1
  serializedVersion: 2
  m_Modification:
    m_TransformParent: {fileID: 0}
    m_Modifications:
    - target: {fileID: 0}
      propertyPath: size
      value: 0
      objectReference: {fileID: 0}
    m_RemovedComponents: []
  m_ParentPrefab: {fileID: 0}
  m_RootGameObject: {fileID: 140386}
  m_IsPrefabParent: 1
--- !u!1 &1000010304442640
GameObject:
  m_ObjectHideFlags: 0
  m_PrefabParentObject: {fileID: 0}
  m_PrefabInternal: {fileID: 100100000}
  serializedVersion: 5
  m_Component:
  - component: {fileID: 4000011751482340}
  - component: {fileID: 114000011294332214}
  - component: {fileID: 20000010622200848}
  - component: {fileID: 92000013402849364}
  - component: {fileID: 124000013977819758}
  - component: {fileID: 81000014173449286}
  - component: {fileID: 114963210179356544}
  m_Layer: 0
  m_Name: Head
  m_TagString: MainCamera
  m_Icon: {fileID: 0}
  m_NavMeshLayer: 0
  m_StaticEditorFlags: 0
  m_IsActive: 1
--- !u!4 &4000011751482340
Transform:
  m_ObjectHideFlags: 1
  m_PrefabParentObject: {fileID: 0}
  m_PrefabInternal: {fileID: 100100000}
  m_GameObject: {fileID: 1000010304442640}
  m_LocalRotation: {x: -0, y: -0, z: -0, w: 1}
  m_LocalPosition: {x: 0, y: 0, z: 0}
  m_LocalScale: {x: 1, y: 1, z: 1}
  m_Children: []
  m_Father: {fileID: 478642}
  m_RootOrder: 0
  m_LocalEulerAnglesHint: {x: 0, y: 0, z: 0}
--- !u!20 &20000010622200848
Camera:
  m_ObjectHideFlags: 1
  m_PrefabParentObject: {fileID: 0}
  m_PrefabInternal: {fileID: 100100000}
  m_GameObject: {fileID: 1000010304442640}
  m_Enabled: 1
  serializedVersion: 2
  m_ClearFlags: 1
  m_BackGroundColor: {r: 0.19215687, g: 0.3019608, b: 0.4745098, a: 0}
  m_NormalizedViewPortRect:
    serializedVersion: 2
    x: 0
    y: 0
    width: 1
    height: 1
  near clip plane: 0.1
  far clip plane: 1000
  field of view: 60
  orthographic: 0
  orthographic size: 5
  m_Depth: 0
  m_CullingMask:
    serializedVersion: 2
    m_Bits: 4294967295
  m_RenderingPath: -1
  m_TargetTexture: {fileID: 0}
  m_TargetDisplay: 0
  m_TargetEye: 3
  m_HDR: 0
  m_AllowMSAA: 1
  m_AllowDynamicResolution: 0
  m_ForceIntoRT: 0
  m_OcclusionCulling: 1
  m_StereoConvergence: 10
  m_StereoSeparation: 0.022
--- !u!81 &81000014173449286
AudioListener:
  m_ObjectHideFlags: 1
  m_PrefabParentObject: {fileID: 0}
  m_PrefabInternal: {fileID: 100100000}
  m_GameObject: {fileID: 1000010304442640}
  m_Enabled: 0
--- !u!92 &92000013402849364
Behaviour:
  m_ObjectHideFlags: 1
  m_PrefabParentObject: {fileID: 0}
  m_PrefabInternal: {fileID: 100100000}
  m_GameObject: {fileID: 1000010304442640}
  m_Enabled: 1
--- !u!114 &114000011294332214
MonoBehaviour:
  m_ObjectHideFlags: 1
  m_PrefabParentObject: {fileID: 0}
  m_PrefabInternal: {fileID: 100100000}
  m_GameObject: {fileID: 1000010304442640}
  m_Enabled: 1
  m_EditorHideFlags: 0
  m_Script: {fileID: 11500000, guid: 6dd93dbead6c28e42b0408c298a10966, type: 3}
  m_Name: 
  m_EditorClassIdentifier: 
--- !u!114 &114963210179356544
MonoBehaviour:
  m_ObjectHideFlags: 1
  m_PrefabParentObject: {fileID: 0}
  m_PrefabInternal: {fileID: 100100000}
  m_GameObject: {fileID: 1000010304442640}
  m_Enabled: 1
  m_EditorHideFlags: 0
  m_Script: {fileID: 11500000, guid: ff26db721962cdf4a8edcdfa9a767d2a, type: 3}
  m_Name: 
  m_EditorClassIdentifier: 
  profile: {fileID: 11400000, guid: 30a9db849c38f884fb7e91bae1309467, type: 2}
--- !u!124 &124000013977819758
Behaviour:
  m_ObjectHideFlags: 1
  m_PrefabParentObject: {fileID: 0}
  m_PrefabInternal: {fileID: 100100000}
  m_GameObject: {fileID: 1000010304442640}
  m_Enabled: 1
